2019-11-30 15:11:00,197 ERROR: Exception on / [GET] [in /home/red03/.local/lib/python3.6/site-packages/flask/app.py:1761
Traceback (most recent call last):
  File "/home/red03/.local/lib/python3.6/site-packages/flask/app.py", line 2292, in wsgi_app
    response = self.full_dispatch_request()
  File "/home/red03/.local/lib/python3.6/site-packages/flask/app.py", line 1815, in full_dispatch_request
    rv = self.handle_user_exception(e)
  File "/home/red03/.local/lib/python3.6/site-packages/flask/app.py", line 1718, in handle_user_exception
    reraise(exc_type, exc_value, tb)
  File "/home/red03/.local/lib/python3.6/site-packages/flask/_compat.py", line 35, in reraise
    raise value
  File "/home/red03/.local/lib/python3.6/site-packages/flask/app.py", line 1813, in full_dispatch_request
    rv = self.dispatch_request()
  File "/home/red03/.local/lib/python3.6/site-packages/flask/app.py", line 1799, in dispatch_request
    return self.view_functions[rule.endpoint](**req.view_args)
  File "/home/red03/.local/lib/python3.6/site-packages/flask_stats/flask_stats.py", line 36, in wrapper
    return func(*args, **kwargs)
  File "/home/red03/.local/lib/python3.6/site-packages/flask_stats/flask_stats.py", line 36, in wrapper
    return func(*args, **kwargs)
  File "/home/red03/.local/lib/python3.6/site-packages/flask_stats/flask_stats.py", line 36, in wrapper
    return func(*args, **kwargs)
  [Previous line repeated 9 more times]
  File "/home/red03/frameworks-boilerplate/app/__init__.py", line 24, in catch_all
    return render_template("index.html")
NameError: name 'render_template' is not defined
2019-12-05 19:36:11,588 INFO: CAR-API startup [in /home/red03/frameworks-boilerplate/app/__init__.py:58
2019-12-05 19:37:00,174 ERROR: Exception on / [GET] [in /home/red03/.local/lib/python3.6/site-packages/flask/app.py:1761
Traceback (most recent call last):
  File "/home/red03/.local/lib/python3.6/site-packages/flask/app.py", line 2292, in wsgi_app
    response = self.full_dispatch_request()
  File "/home/red03/.local/lib/python3.6/site-packages/flask/app.py", line 1815, in full_dispatch_request
    rv = self.handle_user_exception(e)
  File "/home/red03/.local/lib/python3.6/site-packages/flask/app.py", line 1718, in handle_user_exception
    reraise(exc_type, exc_value, tb)
  File "/home/red03/.local/lib/python3.6/site-packages/flask/_compat.py", line 35, in reraise
    raise value
  File "/home/red03/.local/lib/python3.6/site-packages/flask/app.py", line 1813, in full_dispatch_request
    rv = self.dispatch_request()
  File "/home/red03/.local/lib/python3.6/site-packages/flask/app.py", line 1799, in dispatch_request
    return self.view_functions[rule.endpoint](**req.view_args)
  File "/home/red03/.local/lib/python3.6/site-packages/flask_stats/flask_stats.py", line 36, in wrapper
    return func(*args, **kwargs)
  File "/home/red03/.local/lib/python3.6/site-packages/flask_stats/flask_stats.py", line 36, in wrapper
    return func(*args, **kwargs)
  File "/home/red03/.local/lib/python3.6/site-packages/flask_stats/flask_stats.py", line 36, in wrapper
    return func(*args, **kwargs)
  [Previous line repeated 1 more time]
  File "/home/red03/frameworks-boilerplate/app/__init__.py", line 24, in catch_all
    return render_template("index.html")
NameError: name 'render_template' is not defined
2019-12-05 19:37:00,175 ERROR: Exception on / [GET] [in /home/red03/.local/lib/python3.6/site-packages/flask/app.py:1761
Traceback (most recent call last):
  File "/home/red03/.local/lib/python3.6/site-packages/flask/app.py", line 2292, in wsgi_app
    response = self.full_dispatch_request()
  File "/home/red03/.local/lib/python3.6/site-packages/flask/app.py", line 1815, in full_dispatch_request
    rv = self.handle_user_exception(e)
  File "/home/red03/.local/lib/python3.6/site-packages/flask/app.py", line 1718, in handle_user_exception
    reraise(exc_type, exc_value, tb)
  File "/home/red03/.local/lib/python3.6/site-packages/flask/_compat.py", line 35, in reraise
    raise value
  File "/home/red03/.local/lib/python3.6/site-packages/flask/app.py", line 1813, in full_dispatch_request
    rv = self.dispatch_request()
  File "/home/red03/.local/lib/python3.6/site-packages/flask/app.py", line 1799, in dispatch_request
    return self.view_functions[rule.endpoint](**req.view_args)
  File "/home/red03/.local/lib/python3.6/site-packages/flask_stats/flask_stats.py", line 36, in wrapper
    return func(*args, **kwargs)
  File "/home/red03/.local/lib/python3.6/site-packages/flask_stats/flask_stats.py", line 36, in wrapper
    return func(*args, **kwargs)
  File "/home/red03/.local/lib/python3.6/site-packages/flask_stats/flask_stats.py", line 36, in wrapper
    return func(*args, **kwargs)
  [Previous line repeated 2 more times]
  File "/home/red03/frameworks-boilerplate/app/__init__.py", line 24, in catch_all
    return render_template("index.html")
NameError: name 'render_template' is not defined
2019-12-05 19:37:00,189 ERROR: Exception on / [GET] [in /home/red03/.local/lib/python3.6/site-packages/flask/app.py:1761
Traceback (most recent call last):
  File "/home/red03/.local/lib/python3.6/site-packages/flask/app.py", line 2292, in wsgi_app
    response = self.full_dispatch_request()
  File "/home/red03/.local/lib/python3.6/site-packages/flask/app.py", line 1815, in full_dispatch_request
    rv = self.handle_user_exception(e)
  File "/home/red03/.local/lib/python3.6/site-packages/flask/app.py", line 1718, in handle_user_exception
    reraise(exc_type, exc_value, tb)
  File "/home/red03/.local/lib/python3.6/site-packages/flask/_compat.py", line 35, in reraise
    raise value
  File "/home/red03/.local/lib/python3.6/site-packages/flask/app.py", line 1813, in full_dispatch_request
    rv = self.dispatch_request()
  File "/home/red03/.local/lib/python3.6/site-packages/flask/app.py", line 1799, in dispatch_request
    return self.view_functions[rule.endpoint](**req.view_args)
  File "/home/red03/.local/lib/python3.6/site-packages/flask_stats/flask_stats.py", line 36, in wrapper
    return func(*args, **kwargs)
  File "/home/red03/.local/lib/python3.6/site-packages/flask_stats/flask_stats.py", line 36, in wrapper
    return func(*args, **kwargs)
  File "/home/red03/.local/lib/python3.6/site-packages/flask_stats/flask_stats.py", line 36, in wrapper
    return func(*args, **kwargs)
  [Previous line repeated 5 more times]
  File "/home/red03/frameworks-boilerplate/app/__init__.py", line 24, in catch_all
    return render_template("index.html")
NameError: name 'render_template' is not defined
2019-12-05 19:37:03,156 ERROR: Exception on /endpoints_stats [GET] [in /home/red03/.local/lib/python3.6/site-packages/flask/app.py:1761
Traceback (most recent call last):
  File "/home/red03/.local/lib/python3.6/site-packages/flask/app.py", line 2292, in wsgi_app
    response = self.full_dispatch_request()
  File "/home/red03/.local/lib/python3.6/site-packages/flask/app.py", line 1815, in full_dispatch_request
    rv = self.handle_user_exception(e)
  File "/home/red03/.local/lib/python3.6/site-packages/flask/app.py", line 1718, in handle_user_exception
    reraise(exc_type, exc_value, tb)
  File "/home/red03/.local/lib/python3.6/site-packages/flask/_compat.py", line 35, in reraise
    raise value
  File "/home/red03/.local/lib/python3.6/site-packages/flask/app.py", line 1813, in full_dispatch_request
    rv = self.dispatch_request()
  File "/home/red03/.local/lib/python3.6/site-packages/flask/app.py", line 1799, in dispatch_request
    return self.view_functions[rule.endpoint](**req.view_args)
  File "/home/red03/.local/lib/python3.6/site-packages/flask_stats/flask_stats.py", line 69, in endpoints_stats
    return jsonify(self.__sqlite_repository.get_requests())
  File "/home/red03/.local/lib/python3.6/site-packages/flask_stats/sqlite_repository.py", line 54, in get_requests
    } for x in result_list]
  File "/home/red03/.local/lib/python3.6/site-packages/flask_stats/sqlite_repository.py", line 54, in <listcomp>
    } for x in result_list]
  File "/home/red03/.local/lib/python3.6/site-packages/flask_stats/sqlite_repository.py", line 64, in get_request_percentile
    return result[0][1]
IndexError: list index out of range
2019-12-05 19:37:03,157 ERROR: Exception on /endpoints_stats [GET] [in /home/red03/.local/lib/python3.6/site-packages/flask/app.py:1761
Traceback (most recent call last):
  File "/home/red03/.local/lib/python3.6/site-packages/flask/app.py", line 2292, in wsgi_app
    response = self.full_dispatch_request()
  File "/home/red03/.local/lib/python3.6/site-packages/flask/app.py", line 1815, in full_dispatch_request
    rv = self.handle_user_exception(e)
  File "/home/red03/.local/lib/python3.6/site-packages/flask/app.py", line 1718, in handle_user_exception
    reraise(exc_type, exc_value, tb)
  File "/home/red03/.local/lib/python3.6/site-packages/flask/_compat.py", line 35, in reraise
    raise value
  File "/home/red03/.local/lib/python3.6/site-packages/flask/app.py", line 1813, in full_dispatch_request
    rv = self.dispatch_request()
  File "/home/red03/.local/lib/python3.6/site-packages/flask/app.py", line 1799, in dispatch_request
    return self.view_functions[rule.endpoint](**req.view_args)
  File "/home/red03/.local/lib/python3.6/site-packages/flask_stats/flask_stats.py", line 69, in endpoints_stats
    return jsonify(self.__sqlite_repository.get_requests())
  File "/home/red03/.local/lib/python3.6/site-packages/flask_stats/sqlite_repository.py", line 54, in get_requests
    } for x in result_list]
  File "/home/red03/.local/lib/python3.6/site-packages/flask_stats/sqlite_repository.py", line 54, in <listcomp>
    } for x in result_list]
  File "/home/red03/.local/lib/python3.6/site-packages/flask_stats/sqlite_repository.py", line 64, in get_request_percentile
    return result[0][1]
IndexError: list index out of range
