2019-12-05 19:37:51,189 ERROR: Exception on / [GET] [in /home/red03/.local/lib/python3.6/site-packages/flask/app.py:1761
Traceback (most recent call last):
  File "/home/red03/.local/lib/python3.6/site-packages/flask/app.py", line 2292, in wsgi_app
    response = self.full_dispatch_request()
  File "/home/red03/.local/lib/python3.6/site-packages/flask/app.py", line 1815, in full_dispatch_request
    rv = self.handle_user_exception(e)
  File "/home/red03/.local/lib/python3.6/site-packages/flask/app.py", line 1718, in handle_user_exception
    reraise(exc_type, exc_value, tb)
  File "/home/red03/.local/lib/python3.6/site-packages/flask/_compat.py", line 35, in reraise
    raise value
  File "/home/red03/.local/lib/python3.6/site-packages/flask/app.py", line 1813, in full_dispatch_request
    rv = self.dispatch_request()
  File "/home/red03/.local/lib/python3.6/site-packages/flask/app.py", line 1799, in dispatch_request
    return self.view_functions[rule.endpoint](**req.view_args)
  File "/home/red03/.local/lib/python3.6/site-packages/flask_stats/flask_stats.py", line 36, in wrapper
    return func(*args, **kwargs)
  File "/home/red03/.local/lib/python3.6/site-packages/flask_stats/flask_stats.py", line 36, in wrapper
    return func(*args, **kwargs)
  File "/home/red03/.local/lib/python3.6/site-packages/flask_stats/flask_stats.py", line 36, in wrapper
    return func(*args, **kwargs)
  [Previous line repeated 6 more times]
  File "/home/red03/frameworks-boilerplate/app/__init__.py", line 24, in catch_all
    return render_template("index.html")
NameError: name 'render_template' is not defined
2019-12-05 19:37:51,955 ERROR: Exception on /favicon.ico [GET] [in /home/red03/.local/lib/python3.6/site-packages/flask/app.py:1761
Traceback (most recent call last):
  File "/home/red03/.local/lib/python3.6/site-packages/flask/app.py", line 2292, in wsgi_app
    response = self.full_dispatch_request()
  File "/home/red03/.local/lib/python3.6/site-packages/flask/app.py", line 1815, in full_dispatch_request
    rv = self.handle_user_exception(e)
  File "/home/red03/.local/lib/python3.6/site-packages/flask/app.py", line 1718, in handle_user_exception
    reraise(exc_type, exc_value, tb)
  File "/home/red03/.local/lib/python3.6/site-packages/flask/_compat.py", line 35, in reraise
    raise value
  File "/home/red03/.local/lib/python3.6/site-packages/flask/app.py", line 1813, in full_dispatch_request
    rv = self.dispatch_request()
  File "/home/red03/.local/lib/python3.6/site-packages/flask/app.py", line 1799, in dispatch_request
    return self.view_functions[rule.endpoint](**req.view_args)
  File "/home/red03/.local/lib/python3.6/site-packages/flask_stats/flask_stats.py", line 36, in wrapper
    return func(*args, **kwargs)
  File "/home/red03/.local/lib/python3.6/site-packages/flask_stats/flask_stats.py", line 36, in wrapper
    return func(*args, **kwargs)
  File "/home/red03/.local/lib/python3.6/site-packages/flask_stats/flask_stats.py", line 36, in wrapper
    return func(*args, **kwargs)
  [Previous line repeated 7 more times]
  File "/home/red03/frameworks-boilerplate/app/__init__.py", line 24, in catch_all
    return render_template("index.html")
NameError: name 'render_template' is not defined
2019-12-05 19:37:55,013 ERROR: Exception on / [GET] [in /home/red03/.local/lib/python3.6/site-packages/flask/app.py:1761
Traceback (most recent call last):
  File "/home/red03/.local/lib/python3.6/site-packages/flask/app.py", line 2292, in wsgi_app
    response = self.full_dispatch_request()
  File "/home/red03/.local/lib/python3.6/site-packages/flask/app.py", line 1815, in full_dispatch_request
    rv = self.handle_user_exception(e)
  File "/home/red03/.local/lib/python3.6/site-packages/flask/app.py", line 1718, in handle_user_exception
    reraise(exc_type, exc_value, tb)
  File "/home/red03/.local/lib/python3.6/site-packages/flask/_compat.py", line 35, in reraise
    raise value
  File "/home/red03/.local/lib/python3.6/site-packages/flask/app.py", line 1813, in full_dispatch_request
    rv = self.dispatch_request()
  File "/home/red03/.local/lib/python3.6/site-packages/flask/app.py", line 1799, in dispatch_request
    return self.view_functions[rule.endpoint](**req.view_args)
  File "/home/red03/.local/lib/python3.6/site-packages/flask_stats/flask_stats.py", line 36, in wrapper
    return func(*args, **kwargs)
  File "/home/red03/.local/lib/python3.6/site-packages/flask_stats/flask_stats.py", line 36, in wrapper
    return func(*args, **kwargs)
  File "/home/red03/.local/lib/python3.6/site-packages/flask_stats/flask_stats.py", line 36, in wrapper
    return func(*args, **kwargs)
  [Previous line repeated 8 more times]
  File "/home/red03/frameworks-boilerplate/app/__init__.py", line 24, in catch_all
    return render_template("index.html")
NameError: name 'render_template' is not defined
2019-12-05 19:37:55,401 ERROR: Exception on /favicon.ico [GET] [in /home/red03/.local/lib/python3.6/site-packages/flask/app.py:1761
Traceback (most recent call last):
  File "/home/red03/.local/lib/python3.6/site-packages/flask/app.py", line 2292, in wsgi_app
    response = self.full_dispatch_request()
  File "/home/red03/.local/lib/python3.6/site-packages/flask/app.py", line 1815, in full_dispatch_request
    rv = self.handle_user_exception(e)
  File "/home/red03/.local/lib/python3.6/site-packages/flask/app.py", line 1718, in handle_user_exception
    reraise(exc_type, exc_value, tb)
  File "/home/red03/.local/lib/python3.6/site-packages/flask/_compat.py", line 35, in reraise
    raise value
  File "/home/red03/.local/lib/python3.6/site-packages/flask/app.py", line 1813, in full_dispatch_request
    rv = self.dispatch_request()
  File "/home/red03/.local/lib/python3.6/site-packages/flask/app.py", line 1799, in dispatch_request
    return self.view_functions[rule.endpoint](**req.view_args)
  File "/home/red03/.local/lib/python3.6/site-packages/flask_stats/flask_stats.py", line 36, in wrapper
    return func(*args, **kwargs)
  File "/home/red03/.local/lib/python3.6/site-packages/flask_stats/flask_stats.py", line 36, in wrapper
    return func(*args, **kwargs)
  File "/home/red03/.local/lib/python3.6/site-packages/flask_stats/flask_stats.py", line 36, in wrapper
    return func(*args, **kwargs)
  [Previous line repeated 9 more times]
  File "/home/red03/frameworks-boilerplate/app/__init__.py", line 24, in catch_all
    return render_template("index.html")
NameError: name 'render_template' is not defined
2019-12-05 19:38:00,141 ERROR: Exception on / [GET] [in /home/red03/.local/lib/python3.6/site-packages/flask/app.py:1761
Traceback (most recent call last):
  File "/home/red03/.local/lib/python3.6/site-packages/flask/app.py", line 2292, in wsgi_app
    response = self.full_dispatch_request()
  File "/home/red03/.local/lib/python3.6/site-packages/flask/app.py", line 1815, in full_dispatch_request
    rv = self.handle_user_exception(e)
  File "/home/red03/.local/lib/python3.6/site-packages/flask/app.py", line 1718, in handle_user_exception
    reraise(exc_type, exc_value, tb)
  File "/home/red03/.local/lib/python3.6/site-packages/flask/_compat.py", line 35, in reraise
    raise value
  File "/home/red03/.local/lib/python3.6/site-packages/flask/app.py", line 1813, in full_dispatch_request
    rv = self.dispatch_request()
  File "/home/red03/.local/lib/python3.6/site-packages/flask/app.py", line 1799, in dispatch_request
    return self.view_functions[rule.endpoint](**req.view_args)
  File "/home/red03/.local/lib/python3.6/site-packages/flask_stats/flask_stats.py", line 36, in wrapper
    return func(*args, **kwargs)
  File "/home/red03/.local/lib/python3.6/site-packages/flask_stats/flask_stats.py", line 36, in wrapper
    return func(*args, **kwargs)
  File "/home/red03/.local/lib/python3.6/site-packages/flask_stats/flask_stats.py", line 36, in wrapper
    return func(*args, **kwargs)
  [Previous line repeated 10 more times]
  File "/home/red03/frameworks-boilerplate/app/__init__.py", line 24, in catch_all
    return render_template("index.html")
NameError: name 'render_template' is not defined
2019-12-05 19:38:00,158 ERROR: Exception on / [GET] [in /home/red03/.local/lib/python3.6/site-packages/flask/app.py:1761
Traceback (most recent call last):
  File "/home/red03/.local/lib/python3.6/site-packages/flask/app.py", line 2292, in wsgi_app
    response = self.full_dispatch_request()
  File "/home/red03/.local/lib/python3.6/site-packages/flask/app.py", line 1815, in full_dispatch_request
    rv = self.handle_user_exception(e)
  File "/home/red03/.local/lib/python3.6/site-packages/flask/app.py", line 1718, in handle_user_exception
    reraise(exc_type, exc_value, tb)
  File "/home/red03/.local/lib/python3.6/site-packages/flask/_compat.py", line 35, in reraise
    raise value
  File "/home/red03/.local/lib/python3.6/site-packages/flask/app.py", line 1813, in full_dispatch_request
    rv = self.dispatch_request()
  File "/home/red03/.local/lib/python3.6/site-packages/flask/app.py", line 1799, in dispatch_request
    return self.view_functions[rule.endpoint](**req.view_args)
  File "/home/red03/.local/lib/python3.6/site-packages/flask_stats/flask_stats.py", line 36, in wrapper
    return func(*args, **kwargs)
  File "/home/red03/.local/lib/python3.6/site-packages/flask_stats/flask_stats.py", line 36, in wrapper
    return func(*args, **kwargs)
  File "/home/red03/.local/lib/python3.6/site-packages/flask_stats/flask_stats.py", line 36, in wrapper
    return func(*args, **kwargs)
  [Previous line repeated 12 more times]
  File "/home/red03/frameworks-boilerplate/app/__init__.py", line 24, in catch_all
    return render_template("index.html")
NameError: name 'render_template' is not defined
